module github.com/mbovo/macasc

go 1.14

require (
	github.com/google/martian v2.1.0+incompatible
	github.com/mitchellh/go-homedir v1.1.0
	github.com/posener/complete v1.1.1
	github.com/spf13/cobra v1.0.0
	github.com/spf13/viper v1.7.0
	gopkg.in/yaml.v2 v2.2.4
)
